{ "compressionlevel":-1,
 "height":20,
 "infinite":false,
 "layers":[
        {
         "data":[5, 5, 5, 5, 5, 5, 5, 6, 6, 6, 6, 6, 5, 5, 5, 5, 5, 5, 5, 6, 7, 5, 6, 7, 5, 5, 6, 8, 8, 8, 5, 6, 6, 6, 7, 7, 7, 7, 5, 6, 5, 6, 6, 5, 5, 6, 8, 6, 5, 6, 6, 8, 8, 6, 6, 6, 5, 6, 5, 6, 5, 5, 5, 7, 5, 6, 5, 5, 6, 8, 8, 8, 7, 8, 8, 8, 7, 8, 5, 6, 6, 7, 7, 5, 6, 8, 5, 6, 8, 6, 5, 5, 7, 7, 8, 6, 5, 6, 5, 6, 6, 7, 5, 6, 8, 5, 6, 8, 7, 8, 5, 6, 6, 6, 6, 8, 6, 8, 5, 6, 6, 7, 5, 6, 5, 6, 8, 6, 5, 6, 6, 8, 8, 8, 8, 6, 8, 6, 5, 6, 6, 5, 6, 8, 5, 6, 5, 5, 6, 8, 8, 8, 7, 8, 7, 8, 8, 8, 5, 6, 6, 5, 6, 8, 5, 6, 5, 6, 6, 7, 8, 5, 5, 6, 7, 8, 8, 6, 5, 6, 6, 5, 6, 5, 6, 8, 5, 6, 8, 7, 8, 5, 6, 8, 7, 8, 8, 8, 5, 6, 5, 5, 6, 5, 6, 6, 5, 6, 7, 7, 8, 6, 6, 6, 7, 8, 8, 6, 5, 6, 5, 5, 5, 6, 8, 8, 5, 6, 7, 8, 5, 6, 6, 5, 7, 8, 7, 8, 5, 6, 5, 5, 5, 6, 5, 6, 5, 5, 5, 5, 7, 8, 5, 7, 7, 8, 5, 6, 5, 6, 5, 7, 5, 6, 7, 8, 7, 7, 7, 7, 8, 5, 7, 5, 7, 8, 7, 8, 5, 6, 7, 7, 5, 5, 6, 6, 5, 6, 5, 5, 5, 7, 8, 7, 8, 6, 5, 6, 5, 6, 7, 8, 7, 5, 6, 5, 5, 5, 7, 7, 7, 5, 5, 7, 8, 8, 7, 8, 5, 6, 7, 8, 5, 7, 5, 5, 5, 5, 5, 5, 5, 7, 7, 8, 5, 6, 5, 6, 5, 6, 7, 8, 7, 8, 7, 7, 7, 7, 7, 7, 7, 8, 7, 8, 7, 8, 7, 8, 5, 6, 7, 8, 6, 6, 6, 6, 6, 6, 6, 6, 6, 6, 6, 6, 6, 6, 6, 6, 6, 6, 8, 8, 8, 8, 8, 8, 8, 8, 8, 8, 8, 8, 8, 8, 8, 8, 8, 8, 8, 8],
         "height":20,
         "id":2,
         "name":"LayerGrass",
         "opacity":1,
         "type":"tilelayer",
         "visible":true,
         "width":20,
         "x":0,
         "y":0
        }, 
        {
         "data":[1, 2, 1, 2, 1, 2, 1, 2, 1, 2, 1, 2, 1, 2, 1, 2, 1, 2, 1, 2, 3, 4, 3, 4, 3, 4, 3, 4, 3, 4, 3, 4, 3, 4, 3, 4, 3, 4, 3, 4, 1, 2, 0, 0, 0, 0, 1, 2, 0, 0, 0, 0, 0, 0, 0, 0, 0, 0, 1, 2, 3, 4, 0, 0, 0, 0, 3, 4, 0, 0, 0, 0, 0, 0, 0, 0, 0, 0, 3, 4, 1, 2, 0, 0, 0, 0, 1, 2, 0, 0, 0, 0, 0, 0, 0, 0, 0, 0, 1, 2, 3, 4, 0, 0, 0, 0, 3, 4, 0, 0, 0, 0, 0, 0, 0, 0, 0, 0, 3, 4, 1, 2, 0, 0, 0, 0, 1, 2, 0, 0, 0, 0, 0, 0, 0, 0, 0, 0, 1, 2, 3, 4, 0, 0, 0, 0, 3, 4, 0, 0, 0, 0, 0, 0, 0, 0, 0, 0, 3, 4, 1, 2, 0, 0, 0, 0, 1, 2, 1, 2, 1, 2, 1, 2, 0, 0, 0, 0, 1, 2, 3, 4, 0, 0, 0, 0, 3, 4, 3, 4, 3, 4, 3, 4, 0, 0, 0, 0, 3, 4, 1, 2, 0, 0, 0, 0, 0, 0, 0, 0, 1, 2, 0, 0, 0, 0, 0, 0, 1, 2, 3, 4, 0, 0, 0, 0, 0, 0, 0, 0, 3, 4, 0, 0, 0, 0, 0, 0, 3, 4, 1, 2, 0, 0, 0, 0, 0, 0, 0, 0, 1, 2, 0, 0, 0, 0, 0, 0, 1, 2, 3, 4, 0, 0, 0, 0, 0, 0, 0, 0, 3, 4, 0, 0, 0, 0, 0, 0, 3, 4, 1, 2, 0, 0, 0, 0, 0, 0, 0, 0, 1, 2, 0, 0, 0, 0, 0, 0, 1, 2, 3, 4, 0, 0, 0, 0, 0, 0, 0, 0, 3, 4, 0, 0, 0, 0, 0, 0, 3, 4, 1, 2, 0, 0, 0, 0, 0, 0, 0, 0, 0, 0, 0, 0, 0, 0, 0, 0, 1, 2, 3, 4, 0, 0, 0, 0, 0, 0, 0, 0, 0, 0, 0, 0, 0, 0, 0, 0, 3, 4, 1, 2, 1, 2, 1, 2, 1, 2, 1, 2, 1, 2, 1, 2, 1, 2, 1, 2, 1, 2, 3, 4, 3, 4, 3, 4, 3, 4, 3, 4, 3, 4, 3, 4, 3, 4, 3, 4, 3, 4],
         "height":20,
         "id":1,
         "name":"LayerWall",
         "opacity":1,
         "type":"tilelayer",
         "visible":true,
         "width":20,
         "x":0,
         "y":0
        }],
 "nextlayerid":3,
 "nextobjectid":1,
 "orientation":"orthogonal",
 "renderorder":"right-down",
 "tiledversion":"1.7.1",
 "tileheight":32,
 "tilesets":[
        {
         "columns":2,
         "firstgid":1,
         "image":"..\/..\/sokobanpack\/Crate_Brown.png",
         "imageheight":64,
         "imagewidth":64,
         "margin":0,
         "name":"Crate_Brown",
         "spacing":0,
         "tilecount":4,
         "tileheight":32,
         "tilewidth":32,
         "transparentcolor":"#003039"
        }, 
        {
         "columns":2,
         "firstgid":5,
         "image":"..\/..\/sokobanpack\/GroundGravel_Grass.png",
         "imageheight":64,
         "imagewidth":64,
         "margin":0,
         "name":"GroundGravel_Grass",
         "spacing":0,
         "tilecount":4,
         "tileheight":32,
         "tilewidth":32,
         "transparentcolor":"#003039"
        }],
 "tilewidth":32,
 "type":"map",
 "version":"1.6",
 "width":20
}